{
  "Name": "alex",
  "Windows": [
    {
      "Title": "main",
      "Top": 10,
      "Left": 20,
      "Width": 20,
      "Height": 20
    },
    {
      "Title": "help",
      "Top": 20,
      "Left": 30,
      "Width": 400,
      "Height": 30
    },
    {
      "Title": "search",
      "Top": 0,
      "Left": 47,
      "Width": 47,
      "Height": 47
    }
  ]
}